Id,BIRTHDATE,DEATHDATE,SSN,DRIVERS,PASSPORT,PREFIX,FIRST,LAST,SUFFIX,MAIDEN,MARITAL,RACE,ETHNICITY,GENDER,BIRTHPLACE,ADDRESS,CITY,STATE,COUNTY,ZIP,LAT,LON,HEALTHCARE_EXPENSES,HEALTHCARE_COVERAGE
23ddbe86-2022-2cf6-ed5d-09d06786dd26,2004-08-01,,999-40-6434,S99998685,,,Cristen212,Hammes673,,,,white,nonhispanic,F,Los Angeles  California  US,657 Haag Well,San Francisco,California,San Francisco County,94104,37.76437677580982,-122.43926310188229,856584.61,51651.42
e9f55815-f68d-f405-c170-929c51d601a1,1963-10-12,,999-61-1689,S99933781,X4855357X,Mrs.,Lindsy319,Lynch190,,Schamberger479,M,other,nonhispanic,F,Chino  California  US,516 Blick Stravenue,San Francisco,California,San Francisco County,94132,37.78521371638417,-122.38126870364651,2020333.7104999996,891834.9794999999
1657623c-52a8-10d2-e8a2-522c37e75556,2008-08-10,,999-47-4926,,,,Gus973,Mayer370,,,,asian,nonhispanic,M,Hong Kong  Hong Kong Special Administrative Region  CN,651 Anderson Spur,San Francisco,California,San Francisco County,94108,37.75387548684236,-122.38150101558557,457349.2974999999,8311.882499999998
0ec149ff-c8f6-e48e-2144-3626f6a007ed,2007-01-03,,999-83-9569,,,,Darren774,O'Connell601,,,,white,hispanic,M,Norwalk  California  US,228 Wolff Frontage road Apt 53,San Francisco,California,San Francisco County,94127,37.76184888711952,-122.41364109886827,385145.8925,3049.4475
2a1f904f-d703-592c-9b62-6bc5d2096eaa,1981-02-24,1996-12-03,999-30-4135,,,,Cristobal567,Gonzales379,,,,asian,hispanic,M,La Paz  Baja California  MX,681 Ortiz Spur,San Francisco,California,San Francisco County,94116,37.714438183242464,-122.38178073899138,921188.2300000002,0.0
bb3cc996-d92f-00a2-780d-6b58714710e3,1968-03-11,2013-03-04,999-92-8877,S99919414,X83410358X,Mr.,Octavio643,Acosta403,,,M,black,nonhispanic,M,Ponce  Puerto Rico  PR,229 Kertzmann Mall Unit 54,San Francisco,California,San Francisco County,94133,37.7040749011409,-122.4650832488853,879659.76,1220.31
2f2837df-b379-4445-81ce-405e2fdccf99,1976-10-15,,999-53-4763,S99997159,X30526889X,Mr.,Gustavo235,Regalado83,,,S,white,hispanic,M,Ponce  Puerto Rico  PR,885 Schneider Lock,San Francisco,California,San Francisco County,94109,37.84411459802959,-122.45924207304463,1133717.2074999996,3577.9125000000004
eab9c147-9332-c48e-d8ea-135a7bf0bb2e,1939-04-29,,999-99-7065,S99927003,X18530866X,Ms.,Valeria950,Abbott774,,,S,white,nonhispanic,F,Corona  California  US,382 Donnelly Harbor,San Francisco,California,San Francisco County,94118,37.74143951875814,-122.37580858567267,2670571.0769999996,366964.653
0f5c58dc-310a-6a21-e3bf-d9c05eb5a876,1995-09-02,2007-04-02,999-74-7008,,,,Norberto865,Murphy561,,,,white,nonhispanic,M,Fresno  California  US,261 Pagac Extension Unit 39,San Francisco,California,San Francisco County,94117,37.788367362200944,-122.48525553298829,347622.8075,119.51250000000005
f3ce8e51-1d87-b8db-459d-ec9637d1f185,1990-11-02,1992-09-16,999-82-2371,,,,Chauncey770,Will178,,,,asian,nonhispanic,M,Rolling Hills Estates  California  US,439 Ziemann Road,San Francisco,California,San Francisco County,94111,37.79231786991929,-122.42029232012666,71215.75,0.0
05e70bb3-b9ef-69a4-b727-c3b62f035ff1,2017-11-28,,999-48-6737,,,,Leanna255,Strosin214,,,,white,nonhispanic,F,Bakersfield  California  US,453 Kertzmann Lane,San Francisco,California,San Francisco County,94129,37.82358771451699,-122.36590493521098,97599.8375,5205.1425
1d9681ca-21db-3141-316b-5067420c4b24,1988-08-27,,999-34-6821,S99937574,X30961276X,Mr.,Herman763,DuBuque211,,,S,white,nonhispanic,M,San Francisco  California  US,213 Will Key Suite 70,San Francisco,California,San Francisco County,94114,37.80634765518826,-122.41696659682663,833646.4249999999,8471.175000000001
6570f0b2-5308-fb7e-2139-94970cb5ddfb,1981-02-24,,999-47-4727,S99933826,X48996899X,Mr.,Miguel Ángel46,Jaime666,,,M,asian,hispanic,M,Buenos Aires  Ciudad de Buenos Aires  AR,836 O'Conner Fork Suite 82,San Francisco,California,San Francisco County,94109,37.81763396254676,-122.39234577719577,1392562.3099999998,17889.24
9c9b6530-472e-9f3e-65df-29726f40eb5a,1968-03-11,,999-63-7061,S99979700,X24459524X,Mr.,Ignacio928,Altamirano540,,,M,black,nonhispanic,M,Caracas  Capital District  VE,744 Lebsack Junction,San Francisco,California,San Francisco County,94129,37.80807828970339,-122.38336197811358,1087921.41,2225.3100000000004
41d4fdc4-2a14-1fb1-7787-ac319f622ccd,1995-09-02,,999-13-8842,S99970074,X57249350X,Mr.,Shon148,Ernser583,,,,white,nonhispanic,M,Visalia  California  US,893 Bailey Station Unit 38,San Francisco,California,San Francisco County,94134,37.761405844653154,-122.44470697447429,657339.2449999999,935.535
7d829076-d1e6-eaf0-87f9-dc6698e64463,1994-07-11,,999-86-1572,S99938660,X40352258X,Mrs.,Ashly243,Koch169,,Sauer652,M,white,nonhispanic,F,Los Angeles  California  US,535 Wolf Meadow Apt 96,San Francisco,California,San Francisco County,94111,37.753122396107266,-122.38910772510792,867272.4750000001,53623.84500000001
8d09504e-a5c5-24e3-ca82-62b834accac9,1990-11-02,,999-97-9447,S99956210,X52773213X,Mr.,Oswaldo857,Hand679,,,M,asian,nonhispanic,M,Bellflower  California  US,455 Leannon Union,San Francisco,California,San Francisco County,,37.80226174743291,-122.44114399509775,794705.6149999998,5255.085
30bd3070-3136-5dff-fdff-672d06fe465d,1953-03-24,,999-14-2020,S99984722,X36236929X,Mrs.,Barbara209,Marín855,,Méndez913,M,asian,hispanic,F,Caguas  Puerto Rico  PR,340 Buckridge Club,San Francisco,California,San Francisco County,94132,37.726464562794575,-122.52892164396431,449540.44150000013,429481.34849999985
3f52d262-6c59-5473-78df-90947bc3f6c3,1950-08-27,,999-41-4121,S99918409,X11210236X,Mrs.,Patricia625,Caballero789,,Zapata667,M,white,hispanic,F,Bayamon  Puerto Rico  PR,330 Stark Rapid Apt 50,San Francisco,California,San Francisco County,94132,37.76473979156795,-122.54342881063643,3654284.8985000006,263977.6515
6c42946d-265e-61d2-6d73-c6df5db28c5e,1978-10-30,,999-45-5327,S99974372,X83569435X,Mrs.,Wenona350,Tillman293,,Treutel973,M,asian,nonhispanic,F,Santa Barbara  California  US,573 Wyman Fork Unit 29,San Francisco,California,San Francisco County,94124,37.78370357633724,-122.47758219340577,2690232.5915000006,51698.0285
0ad2335a-abe1-05c9-5acc-9bd2524a72d6,2018-09-29,,999-88-3822,,,,Kirstie385,Quitzon246,,,,other,nonhispanic,F,Suisun City  California  US,961 Thompson Port,San Francisco,California,San Francisco County,94131,37.7678757371755,-122.4657046785109,10669.898000000001,10448.062
41ee672e-66e3-539b-9ce1-be31eb3084fc,1985-12-09,,999-28-3650,S99993953,X82691366X,Mr.,Reid278,Sawayn19,,,S,white,hispanic,M,Pine Mountain Club  California  US,107 Durgan Port Suite 94,San Francisco,California,San Francisco County,94118,37.77887471824686,-122.41552872178569,1797992.66,1853.6399999999999
48242486-96de-3dc8-7196-60edb5b11589,2012-02-26,,999-53-9350,,,,Cherilyn114,Hilll811,,,,white,nonhispanic,F,San Diego  California  US,843 White Mews,San Francisco,California,San Francisco County,94108,37.839181307284655,-122.36613977937702,253599.88,2401.7099999999996
6eaaa99c-cd77-b36e-6475-a3bcac20120b,2020-08-15,,999-49-2904,,,,Marcell728,Frami345,,,,asian,nonhispanic,F,Butte Creek Canyon  California  US,640 Okuneva Mews Apt 16,San Francisco,California,San Francisco County,94114,37.74304079261056,-122.36409286674886,44667.0775,181.97250000000003
b173c43c-75e8-525b-f765-e503c66c9582,1992-07-06,,999-99-8296,S99930724,X39987294X,Mr.,Greg949,Baumbach677,,,M,white,nonhispanic,M,Los Angeles  California  US,802 Walker Row,San Francisco,California,San Francisco County,94134,37.771335713869426,-122.40607983141652,97454.17950000003,82159.41049999998
d7ce1c50-cff3-da42-a19d-d5a29b54f236,1990-09-20,,999-14-6264,S99958187,X28081286X,Mr.,Arron144,Kshlerin58,,,M,other,nonhispanic,M,Fremont  California  US,303 Cremin Divide Unit 75,San Francisco,California,San Francisco County,94121,37.80213924716432,-122.45379008608946,776972.3375,2152.4925
e57dba09-5f3c-d2eb-4203-142a43ffccaa,1993-01-29,,999-13-7285,S99928159,X18392868X,Ms.,Britt177,Lakin515,,,S,asian,nonhispanic,F,Los Angeles  California  US,1076 Adams Trace Apt 13,San Francisco,California,San Francisco County,94158,37.7660903557026,-122.44340410719292,2087971.5399999993,131479.89
207e6a9a-467c-400e-76d3-b3eaf5ab1b36,1976-06-25,,999-73-5109,S99912428,X18034941X,Mrs.,Isaura563,Fisher429,,Pfeffer420,M,asian,nonhispanic,F,Macau  Macao Special Administrative Region of the People's Republic of China  CN,616 Bogisich Track Apt 20,San Francisco,California,San Francisco County,94121,37.72954520112107,-122.45356211709608,3061878.1515,244892.94849999997
a684910d-6269-f248-cc60-baf2b1ec1f4e,2020-09-28,,999-15-5280,,,,Spencer878,Rippin620,,,,white,nonhispanic,M,Eastvale  California  US,578 Lindgren Hollow,San Francisco,California,San Francisco County,94132,37.74872957792106,-122.41146086956373,37770.9675,95.72250000000003
9c109f47-5959-3913-aad6-611d57eef1cd,2001-01-01,,999-13-2127,S99975661,X82222200X,Mr.,Burton124,Kreiger457,,,,asian,nonhispanic,M,Nagoya   Aichi  JP,877 Cassin Rue Suite 6,San Francisco,California,San Francisco County,94129,37.75708085707659,-122.40766308786921,508726.93000000005,2027.8500000000001
53ba345e-0b25-d308-d251-59607b958236,1956-07-30,,999-28-6620,S99947503,X86340104X,Mr.,Robbie31,Lemke654,,,M,asian,nonhispanic,M,Novato  California  US,308 Emmerich Gardens,San Francisco,California,San Francisco County,94132,37.68671726985708,-122.489256864417,1738115.7824999995,31819.6475
88d46fc4-2a54-b986-7e64-93ca30bbc036,1996-01-26,,999-66-8622,S99918709,X48842563X,Ms.,Micaela928,Beltrán716,,,,white,hispanic,F,Havana  Havana  CU,1054 Torp Vista,San Francisco,California,San Francisco County,94132,37.820321545099645,-122.4256866460593,675696.2654999999,374243.67449999996
3fdcd0ef-1cd4-1121-89da-68fe9c20167d,1954-04-05,,999-47-8285,S99957200,X50516897X,Mrs.,Sheron583,Bechtelar572,,Weber641,M,hawaiian,nonhispanic,F,Morada  California  US,744 Farrell Dale Unit 16,San Francisco,California,San Francisco County,94107,37.75965894728271,-122.37508936985435,2109284.1219999995,256612.58799999996
bcfdee5c-ccfa-574d-c6d5-fb162af85c45,1999-11-04,,999-32-9314,S99951349,X49297120X,Ms.,Ramona980,Carrera906,,,,asian,hispanic,F,Caracas  Capital District  VE,829 Nicolas Byway,San Francisco,California,San Francisco County,94122,37.84339064347203,-122.46307814291207,791024.5120000001,181073.23799999998
8ea1d08b-d3fa-c912-5900-293951af19ba,1993-03-02,,999-43-5054,S99996673,X78496702X,Ms.,Delena885,Brakus656,,,S,black,nonhispanic,F,Fresno  California  US,763 Daniel Camp Apt 91,San Francisco,California,San Francisco County,94129,37.7728139505778,-122.40411595595074,772288.2235000001,660192.4965
ed9c3496-fd42-e328-3532-0d9a358ab006,1938-07-13,2008-11-17,999-96-5760,S99917127,X34160410X,Mrs.,Ciara810,Roob72,JD,Mohr916,M,asian,nonhispanic,F,Beijing  Beijing Municipality  CN,171 Schuster Grove,San Francisco,California,San Francisco County,94123,37.80014295758154,-122.43339267184648,2949384.830000001,528311.3099999999
d9418dbe-97bd-5cc8-fc4a-9563efaebe93,2020-02-10,,999-32-7391,,,,William805,Heaney114,,,,white,nonhispanic,M,Coalinga  California  US,630 Wiegand Lodge Unit 62,San Francisco,California,San Francisco County,,37.73524163157717,-122.4843985524667,7254.33,0.0
ed33ccba-4235-2a52-fac0-2003b77ffa88,1989-04-25,,999-87-9212,S99921976,X56515056X,Ms.,Keiko299,Zboncak558,,,S,white,nonhispanic,F,South Gate  California  US,514 Zulauf Trafficway Unit 69,San Francisco,California,San Francisco County,94117,37.75048831301127,-122.4015205279896,760800.5314999999,99884.5485
d78d9700-da24-33a7-fe92-ba48db327c23,1968-12-29,,999-80-4479,S99936919,X24260876X,Mr.,Cole117,Ratke343,,,S,asian,nonhispanic,M,Hemet  California  US,588 Funk Plaza Apt 41,San Francisco,California,San Francisco County,94111,37.80990610832534,-122.41664848588222,1072319.0854999996,26.134500000000003
7a6352a0-58c0-aaf5-f1e7-5abe74365693,1964-09-12,,999-79-6609,S99916961,X22744261X,Mrs.,Roseann182,Purdy2,,Fahey393,M,white,nonhispanic,F,San Buenaventura (Ventura)  California  US,654 Tremblay Bay,San Francisco,California,San Francisco County,94104,37.72245927515035,-122.44910273960268,1392739.4300000004,560161.04
2f45065a-5899-8335-f197-4367264aadb7,1988-10-13,,999-59-5652,S99984574,X26266483X,Mr.,Art115,Toy286,,,M,asian,nonhispanic,M,San Diego  California  US,110 Rempel Road Unit 66,San Francisco,California,San Francisco County,94158,37.802504904736544,-122.46363565850164,77232.6265,25060.93349999999
5b9963c6-c708-7c80-1e69-a67a4411516f,1952-02-22,,999-47-4366,S99935192,X35400374X,Mr.,Víctor493,Alvarez441,,,M,white,hispanic,M,Lima  Lima Province  PE,1003 Lehner Trailer Suite 17,San Francisco,California,San Francisco County,94131,37.730734932014094,-122.52693276572228,1782560.7274999998,26156.4925
ea10df6f-41da-2a64-2cf7-e2cfa76aca6e,1985-10-02,,999-97-2404,S99981251,X49701558X,Mr.,Ernest565,Willms744,,,M,black,nonhispanic,M,Burlingame  California  US,219 Gleason Crossroad,San Francisco,California,San Francisco County,94111,37.763260575994394,-122.43023732098078,913928.5849999997,936.435
5796778a-591b-2d2e-8f96-c1fe76f71d11,1992-04-13,,999-85-9699,S99923048,X73822973X,Ms.,Leanora120,Koelpin146,,,S,white,nonhispanic,F,Cupertino  California  US,161 Botsford Drive,San Francisco,California,San Francisco County,94127,37.7587479283578,-122.44662459537207,1041481.5575,9375.442500000001
ad13e9cb-dff5-5f92-f29b-e503601790a2,1973-11-17,,999-29-2807,S99916586,X14547357X,Mrs.,Rosana394,Fisher429,,Wilderman619,M,white,nonhispanic,F,Brentwood  California  US,1079 Ryan Skyway,San Francisco,California,San Francisco County,94105,37.81711114638858,-122.34449488833815,1721658.5600000012,0.0
7d748853-c1a2-5298-631b-335966be5cbc,1975-02-25,,999-33-5340,S99985033,X71755245X,Ms.,Francie486,Johnston597,,,S,asian,nonhispanic,F,Santa Clara  California  US,979 Schmeler Glen Apt 69,San Francisco,California,San Francisco County,94134,37.79882539006278,-122.44988695364903,3143045.0284999995,333692.79150000005
5c5372c9-d719-e65a-6f8b-17ff10984ce8,1964-04-26,2021-09-21,999-34-9695,S99952058,X85030675X,Mr.,Henry768,Kihn564,,,M,asian,nonhispanic,M,Incheon  Incheon  KR,191 O'Reilly Club Suite 33,San Francisco,California,San Francisco County,94127,37.77100013939357,-122.41176990846671,1631098.7749999997,4083.5849999999987
dae94a22-5e60-cfcf-576c-bd45de761172,1938-07-13,,999-16-1727,S99941792,X16341313X,Mrs.,Leslie90,Mueller846,JD,Willms744,M,asian,nonhispanic,F,Macau  Macao Special Administrative Region of the People's Republic of China  CN,222 Walsh Track Suite 62,San Francisco,California,San Francisco County,,37.83575329456706,-122.43116932147488,3037711.800500001,124920.11950000002
03bf03ca-da9a-905f-b06c-41e85a1b7b3f,2014-07-05,,999-98-9087,,,,Audry167,Waters156,,,,white,nonhispanic,F,Irvine  California  US,366 Quitzon Row Apt 1,San Francisco,California,San Francisco County,,37.7962055409569,-122.47516938607265,196118.6775,3848.6925
5d41791b-3ac5-c44b-efab-2c63d4a0e592,2009-10-09,,999-64-3947,,,,Amy965,Jakubowski832,,,,white,nonhispanic,F,Union City  California  US,767 Kemmer Throughway,San Francisco,California,San Francisco County,94103,37.802801812803395,-122.40198764019809,310610.0625,222.2775
59e1c689-f1f3-d7ed-edac-0a2e2babe6f2,1987-08-12,,999-38-8616,S99914148,X43299196X,Mr.,Lester513,Kunze215,,,M,white,nonhispanic,M,Lawndale  California  US,694 Greenfelder Center,San Francisco,California,San Francisco County,94112,37.74741766033533,-122.42465476729383,864297.1350000001,15874.995
497de94a-2ff3-8c5b-c716-452724a9ec01,1943-05-20,,999-84-6339,S99986912,X60057747X,Mr.,Edwardo860,Lesch175,,,M,white,nonhispanic,M,West Puente Valley  California  US,537 Roberts Arcade,San Francisco,California,San Francisco County,94102,37.76951964420428,-122.45652051178281,1888426.7009999997,53495.179000000004
255f4393-11d2-5ecb-2bb3-c74221bf9a7b,1993-11-09,,999-66-4963,S99996791,X68459449X,Mrs.,Roxie199,Jenkins714,,Schuppe920,M,white,nonhispanic,F,Lyon  Auvergne-Rhone-Alpes  FR,900 Cruickshank Neck Unit 56,San Francisco,California,San Francisco County,94134,37.80469761279615,-122.5103972295434,1378333.5124999997,154814.1975
7021a09e-750d-542c-9a94-e38557f898fc,1952-09-06,,999-78-7706,S99960708,X9848676X,Mrs.,Alyson860,Murazik203,,Steuber698,M,white,nonhispanic,F,Los Angeles  California  US,1091 Dicki Glen,San Francisco,California,San Francisco County,94112,37.77309419704025,-122.45910202108138,1721344.7925000007,141175.0775
586c96f6-878d-30ae-25aa-f898ebb90895,1964-04-26,,999-63-5416,S99931983,X68320452X,Mr.,Maximo817,McDermott739,,,M,asian,nonhispanic,M,Seoul  Seoul  KR,403 Cruickshank Junction Apt 50,San Francisco,California,San Francisco County,94127,37.78674269300035,-122.51168629861151,1470618.2500000002,11977.199999999999
3952af04-a2dc-6cee-fe1e-5ff6e58a42ef,1988-02-10,,999-75-7389,S99967646,X53240532X,Mrs.,Lucretia377,Thompson596,,Fahey393,M,asian,nonhispanic,F,San Francisco  California  US,719 Trantow Wall Unit 5,San Francisco,California,San Francisco County,94127,37.80960879322612,-122.39287648818888,837326.602,576363.328
